('C:\\Users\\Nikita\\Desktop\\analyticalSystem\\build\\main\\PKG-00.pkg',
 {'BINARY': 1,
  'DATA': 1,
  'EXECUTABLE': 1,
  'EXTENSION': 1,
  'PYMODULE': 1,
  'PYSOURCE': 1,
  'PYZ': 0},
 [('PYZ-00.pyz',
   'C:\\Users\\Nikita\\Desktop\\analyticalSystem\\build\\main\\PYZ-00.pyz',
   'PYZ'),
  ('struct',
   'c:\\users\\nikita\\appdata\\local\\programs\\python\\python39\\lib\\struct.pyo',
   'PYMODULE'),
  ('pyimod01_os_path',
   'c:\\users\\nikita\\appdata\\local\\programs\\python\\python39\\lib\\site-packages\\PyInstaller\\loader\\pyimod01_os_path.pyc',
   'PYMODULE'),
  ('pyimod02_archive',
   'c:\\users\\nikita\\appdata\\local\\programs\\python\\python39\\lib\\site-packages\\PyInstaller\\loader\\pyimod02_archive.pyc',
   'PYMODULE'),
  ('pyimod03_importers',
   'c:\\users\\nikita\\appdata\\local\\programs\\python\\python39\\lib\\site-packages\\PyInstaller\\loader\\pyimod03_importers.pyc',
   'PYMODULE'),
  ('pyiboot01_bootstrap',
   'c:\\users\\nikita\\appdata\\local\\programs\\python\\python39\\lib\\site-packages\\PyInstaller\\loader\\pyiboot01_bootstrap.py',
   'PYSOURCE'),
  ('pyi_rth_multiprocessing',
   'C:\\Users\\Nikita\\AppData\\Local\\Programs\\Python\\Python39\\Lib\\site-packages\\PyInstaller\\hooks\\rthooks\\pyi_rth_multiprocessing.py',
   'PYSOURCE'),
  ('main', 'C:\\Users\\Nikita\\Desktop\\analyticalSystem\\main.py', 'PYSOURCE'),
  ('VCRUNTIME140.dll',
   'c:\\users\\nikita\\appdata\\local\\programs\\python\\python39\\VCRUNTIME140.dll',
   'BINARY'),
  ('python39.dll',
   'c:\\users\\nikita\\appdata\\local\\programs\\python\\python39\\python39.dll',
   'BINARY'),
  ('_multiprocessing',
   'c:\\users\\nikita\\appdata\\local\\programs\\python\\python39\\DLLs\\_multiprocessing.pyd',
   'EXTENSION'),
  ('unicodedata',
   'c:\\users\\nikita\\appdata\\local\\programs\\python\\python39\\DLLs\\unicodedata.pyd',
   'EXTENSION'),
  ('select',
   'c:\\users\\nikita\\appdata\\local\\programs\\python\\python39\\DLLs\\select.pyd',
   'EXTENSION'),
  ('_socket',
   'c:\\users\\nikita\\appdata\\local\\programs\\python\\python39\\DLLs\\_socket.pyd',
   'EXTENSION'),
  ('_decimal',
   'c:\\users\\nikita\\appdata\\local\\programs\\python\\python39\\DLLs\\_decimal.pyd',
   'EXTENSION'),
  ('_overlapped',
   'c:\\users\\nikita\\appdata\\local\\programs\\python\\python39\\DLLs\\_overlapped.pyd',
   'EXTENSION'),
  ('_ssl',
   'c:\\users\\nikita\\appdata\\local\\programs\\python\\python39\\DLLs\\_ssl.pyd',
   'EXTENSION'),
  ('_asyncio',
   'c:\\users\\nikita\\appdata\\local\\programs\\python\\python39\\DLLs\\_asyncio.pyd',
   'EXTENSION'),
  ('_queue',
   'c:\\users\\nikita\\appdata\\local\\programs\\python\\python39\\DLLs\\_queue.pyd',
   'EXTENSION'),
  ('pyexpat',
   'c:\\users\\nikita\\appdata\\local\\programs\\python\\python39\\DLLs\\pyexpat.pyd',
   'EXTENSION'),
  ('_hashlib',
   'c:\\users\\nikita\\appdata\\local\\programs\\python\\python39\\DLLs\\_hashlib.pyd',
   'EXTENSION'),
  ('_lzma',
   'c:\\users\\nikita\\appdata\\local\\programs\\python\\python39\\DLLs\\_lzma.pyd',
   'EXTENSION'),
  ('_bz2',
   'c:\\users\\nikita\\appdata\\local\\programs\\python\\python39\\DLLs\\_bz2.pyd',
   'EXTENSION'),
  ('_ctypes',
   'c:\\users\\nikita\\appdata\\local\\programs\\python\\python39\\DLLs\\_ctypes.pyd',
   'EXTENSION'),
  ('libssl-1_1.dll',
   'c:\\users\\nikita\\appdata\\local\\programs\\python\\python39\\DLLs\\libssl-1_1.dll',
   'BINARY'),
  ('libcrypto-1_1.dll',
   'c:\\users\\nikita\\appdata\\local\\programs\\python\\python39\\DLLs\\libcrypto-1_1.dll',
   'BINARY'),
  ('libffi-7.dll',
   'c:\\users\\nikita\\appdata\\local\\programs\\python\\python39\\DLLs\\libffi-7.dll',
   'BINARY'),
  ('base_library.zip',
   'C:\\Users\\Nikita\\Desktop\\analyticalSystem\\build\\main\\base_library.zip',
   'DATA'),
  ('main.exe.manifest',
   'C:\\Users\\Nikita\\Desktop\\analyticalSystem\\build\\main\\main.exe.manifest',
   'BINARY'),
  ('pyi-windows-manifest-filename main.exe.manifest', '', 'OPTION')],
 False,
 False,
 False,
 [])
